{
    "sidebar": [
        {"route" : "/company",  "icon" : "mdi-city-variant-outline",    "iconHover" : "mdi-city-variant",   "text" : "Company",     "class" : "list-tile"},
        {"route" : "/employee", "icon" : "mdi-briefcase-outline",       "iconHover" : "mdi-briefcase",      "text" : "Employee" ,   "class" : "list-tile"},
        {"route" : "/user",     "icon" : "mdi-folder-account-outline",  "iconHover" : "mdi-folder-account", "text" : "User" ,       "class" : "list-tile"},
        {"route" : "/role",     "icon" : "mdi-cards-outline",           "iconHover" : "mdi-cards",          "text" : "Role" ,       "class" : "list-tile"},
        {"route" : "/souvenir", "icon" : "mdi-cart-outline",            "iconHover" : "mdi-cart",           "text" : "Souvenir" ,   "class" : "list-tile"}
    ]
}